{
  "results": [
    {
      "vote_count": 2122,
      "id": 181808,
      "video": false,
      "vote_average": 7.3,
      "title": "Star Wars: The Last Jedi",
      "popularity": 752.713562,
      "poster_path": "/xGWVjewoXnJhvxKW619cMzppJDQ.jpg",
      "original_language": "en",
      "original_title": "Star Wars: The Last Jedi",
      "genre_ids": [
        28,
        12,
        14,
        878
      ],
      "backdrop_path": "/5Iw7zQTHVRBOYpA0V6z0yypOPZh.jpg",
      "adult": false,
      "overview": "Rey develops her newly discovered abilities with the guidance of Luke Skywalker, who is unsettled by the strength of her powers. Meanwhile, the Resistance prepares to do battle with the First Order.",
      "release_date": "2017-12-13"
    },
    {
      "vote_count": 803,
      "id": 354912,
      "video": false,
      "vote_average": 7.3,
      "title": "Coco",
      "popularity": 669.264026,
      "poster_path": "/eKi8dIrr8voobbaGzDpe8w0PVbC.jpg",
      "original_language": "en",
      "original_title": "Coco",
      "genre_ids": [
        12,
        16,
        10751
      ],
      "backdrop_path": "/askg3SMvhqEl4OL52YuvdtY40Yb.jpg",
      "adult": false,
      "overview": "Despite his family’s baffling generations-old ban on music, Miguel dreams of becoming an accomplished musician like his idol, Ernesto de la Cruz. Desperate to prove his talent, Miguel finds himself in the stunning and colorful Land of the Dead following a mysterious chain of events. Along the way, he meets charming trickster Hector, and together, they set off on an extraordinary journey to unlock the real story behind Miguel's family history.",
      "release_date": "2017-10-27"
    },
    {
      "vote_count": 553,
      "id": 353486,
      "video": false,
      "vote_average": 6.1,
      "title": "Jumanji: Welcome to the Jungle",
      "popularity": 565.32135,
      "poster_path": "/bXrZ5iHBEjH7WMidbUDQ0U2xbmr.jpg",
      "original_language": "en",
      "original_title": "Jumanji: Welcome to the Jungle",
      "genre_ids": [
        28,
        12,
        35,
        10751
      ],
      "backdrop_path": "/rz3TAyd5kmiJmozp3GUbYeB5Kep.jpg",
      "adult": false,
      "overview": "The tables are turned as four teenagers are sucked into Jumanji's world - pitted against rhinos, black mambas and an endless variety of jungle traps and puzzles. To survive, they'll play as characters from the game.",
      "release_date": "2017-12-08"
    },
    {
      "vote_count": 156,
      "id": 460793,
      "video": false,
      "vote_average": 6.3,
      "title": "Olaf's Frozen Adventure",
      "popularity": 544.740826,
      "poster_path": "/47pLZ1gr63WaciDfHCpmoiXJlVr.jpg",
      "original_language": "en",
      "original_title": "Olaf's Frozen Adventure",
      "genre_ids": [
        12,
        16,
        35,
        10751,
        14,
        10402
      ],
      "backdrop_path": "/woCxv9kua5uqtRNaiWUBDzrgZnH.jpg",
      "adult": false,
      "overview": "Olaf is on a mission to harness the best holiday traditions for Anna, Elsa, and Kristoff.",
      "release_date": "2017-10-27"
    },
    {
      "vote_count": 202,
      "id": 316029,
      "video": false,
      "vote_average": 8.1,
      "title": "The Greatest Showman",
      "popularity": 321.502353,
      "poster_path": "/dfhztJRiElqmYW4kpvjYe1gENsD.jpg",
      "original_language": "en",
      "original_title": "The Greatest Showman",
      "genre_ids": [
        18,
        10402
      ],
      "backdrop_path": "/zpq404Sk7qQ7N4x3xOeNgp74GtU.jpg",
      "adult": false,
      "overview": "The story of American showman P.T. Barnum, founder of the circus that became the famous traveling Ringling Bros. and Barnum & Bailey Circus.",
      "release_date": "2017-12-20"
    },
    {
      "vote_count": 123,
      "id": 399055,
      "video": false,
      "vote_average": 6.8,
      "title": "The Shape of Water",
      "popularity": 297.390166,
      "poster_path": "/iLYLADGA5oKGM92Ns1j9CDgk3iI.jpg",
      "original_language": "en",
      "original_title": "The Shape of Water",
      "genre_ids": [
        18,
        14,
        10749
      ],
      "backdrop_path": "/bAISaVhsaoyyQMZ55cpTwCdzek4.jpg",
      "adult": false,
      "overview": "An other-worldly story, set against the backdrop of Cold War era America circa 1962, where a mute janitor working at a lab falls in love with an amphibious man being held captive there and devises a plan to help him escape.",
      "release_date": "2017-12-01"
    },
    {
      "vote_count": 134,
      "id": 371638,
      "video": false,
      "vote_average": 7.4,
      "title": "The Disaster Artist",
      "popularity": 260.169837,
      "poster_path": "/uCH6FOFsDW6pfvbbmIIswuvuNtM.jpg",
      "original_language": "en",
      "original_title": "The Disaster Artist",
      "genre_ids": [
        18,
        35,
        36
      ],
      "backdrop_path": "/bAI7aPHQcvSZXvt7L11kMJdS0Gm.jpg",
      "adult": false,
      "overview": "An aspiring actor in Hollywood meets an enigmatic stranger by the name of Tommy Wiseau, the meeting leads the actor down a path nobody could have predicted; creating the worst movie ever made.",
      "release_date": "2017-11-30"
    },
    {
      "vote_count": 2145,
      "id": 141052,
      "video": false,
      "vote_average": 6.5,
      "title": "Justice League",
      "popularity": 249.174475,
      "poster_path": "/9rtrRGeRnL0JKtu9IMBWsmlmmZz.jpg",
      "original_language": "en",
      "original_title": "Justice League",
      "genre_ids": [
        28,
        12,
        14,
        878
      ],
      "backdrop_path": "/o5T8rZxoWSBMYwjsUFUqTt6uMQB.jpg",
      "adult": false,
      "overview": "Fueled by his restored faith in humanity and inspired by Superman's selfless act, Bruce Wayne and Diana Prince assemble a team of metahumans consisting of Barry Allen, Arthur Curry, and Victor Stone to face the catastrophic threat of Steppenwolf and the Parademons who are on the hunt for three Mother Boxes on Earth.",
      "release_date": "2017-11-15"
    },
    {
      "vote_count": 110,
      "id": 353616,
      "video": false,
      "vote_average": 6.3,
      "title": "Pitch Perfect 3",
      "popularity": 216.904965,
      "poster_path": "/hQriQIpHUeh66I89gypFXtqEuVq.jpg",
      "original_language": "en",
      "original_title": "Pitch Perfect 3",
      "genre_ids": [
        35
      ],
      "backdrop_path": "/1qIzlhLGPSm6TxlvXBWe0Q5er7O.jpg",
      "adult": false,
      "overview": "After the highs of winning the world championships, the Bellas find themselves split apart and discovering there aren't job prospects for making music with your mouth. But when they get the chance to reunite for an overseas USO tour, this group of awesome nerds will come together to make some music, and some questionable decisions, one last time.",
      "release_date": "2017-12-21"
    },
    {
      "vote_count": 12,
      "id": 324562,
      "video": false,
      "vote_average": 4.8,
      "title": "The Tribes of Palos Verdes",
      "popularity": 170.919651,
      "poster_path": "/8w4JecmVtqcSMk4mdiHURzISsYz.jpg",
      "original_language": "en",
      "original_title": "The Tribes of Palos Verdes",
      "genre_ids": [
        18
      ],
      "backdrop_path": "/atqFgJ9mAbLdPBKvsKlFy7LVQ9Z.jpg",
      "adult": false,
      "overview": "When the situation at her idyllic Palos Verdes home turns volatile, young Medina attempts to surf her way to happiness.",
      "release_date": "2017-12-01"
    },
    {
      "vote_count": 51,
      "id": 317091,
      "video": false,
      "vote_average": 4.8,
      "title": "November Criminals",
      "popularity": 158.793625,
      "poster_path": "/m2JxGgarPvtemudLZ1CB6gLJeUb.jpg",
      "original_language": "en",
      "original_title": "November Criminals",
      "genre_ids": [
        18,
        80
      ],
      "backdrop_path": "/6BZqbqyfFRexdH4ZDBYQ3XWnirS.jpg",
      "adult": false,
      "overview": "Addison Schacht investigates the murder of his friend Kevin, with the help of Pheobe, and they discover the truth is darker than they ever imagined.",
      "release_date": "2017-12-08"
    },
    {
      "vote_count": 151,
      "id": 398818,
      "video": false,
      "vote_average": 8.6,
      "title": "Call Me by Your Name",
      "popularity": 149.753675,
      "poster_path": "/tcNniniS4rfqrLH0oORikJfnIwY.jpg",
      "original_language": "en",
      "original_title": "Call Me by Your Name",
      "genre_ids": [
        10749,
        18
      ],
      "backdrop_path": "/t5fV72V36klctujiMNKdY6tlcxG.jpg",
      "adult": false,
      "overview": "Elio Perlman is spending the summer with his family at their vacation home in Lombardy, Italy. When his father hires a handsome doctoral student, the curious 17-year-old finds himself developing a growing attraction to the young man.",
      "release_date": "2017-10-27"
    },
    {
      "vote_count": 71,
      "id": 450322,
      "video": false,
      "vote_average": 5.2,
      "title": "The Man Who Invented Christmas",
      "popularity": 142.06965,
      "poster_path": "/qRkzRue5rTzB6PESXBJCKqROOXC.jpg",
      "original_language": "en",
      "original_title": "The Man Who Invented Christmas",
      "genre_ids": [
        18,
        36
      ],
      "backdrop_path": "/2lpHdk1ccelg5odsCmk77WqmIvT.jpg",
      "adult": false,
      "overview": "After a series his books have been flops, Charles Dickens decides to write and self-publish A Christmas Carol.",
      "release_date": "2017-11-22"
    },
    {
      "vote_count": 74,
      "id": 399404,
      "video": false,
      "vote_average": 4.8,
      "title": "Darkest Hour",
      "popularity": 136.737546,
      "poster_path": "/67fPL6ZaiOeM4hYqpxqV9Py8psJ.jpg",
      "original_language": "en",
      "original_title": "Darkest Hour",
      "genre_ids": [
        18,
        36,
        10752
      ],
      "backdrop_path": "/mBd56RoS8HiiLT1u0ZZAWFWSU3g.jpg",
      "adult": false,
      "overview": "A thrilling and inspiring true story begins on the eve of World War II as, within days of becoming Prime Minister of Great Britain, Winston Churchill must face one of his most turbulent and defining trials: exploring a negotiated peace treaty with Nazi Germany, or standing firm to fight for the ideals, liberty and freedom of a nation. As the unstoppable Nazi forces roll across Western Europe and the threat of invasion is imminent, and with an unprepared public, a skeptical King, and his own party plotting against him, Churchill must withstand his darkest hour, rally a nation, and attempt to change the course of world history.",
      "release_date": "2017-11-22"
    },
    {
      "vote_count": 11,
      "id": 446354,
      "video": false,
      "vote_average": 6.3,
      "title": "The Post",
      "popularity": 135.165193,
      "poster_path": "/5765ORvdKVX5bWmhEjjiOqLk3TH.jpg",
      "original_language": "en",
      "original_title": "The Post",
      "genre_ids": [
        18,
        36
      ],
      "backdrop_path": "/8sb4aBST28vN3rBz704XJczS0Ld.jpg",
      "adult": false,
      "overview": "A cover-up that spanned four U.S. Presidents pushed the country's first female newspaper publisher and a hard-driving editor to join an unprecedented battle between journalist and government. Inspired by true events.",
      "release_date": "2017-12-22"
    },
    {
      "vote_count": 115,
      "id": 429189,
      "video": false,
      "vote_average": 5.9,
      "title": "Wonder Wheel",
      "popularity": 120.178776,
      "poster_path": "/fPXn8SW4pa4kJErAIAJLmb3Znns.jpg",
      "original_language": "en",
      "original_title": "Wonder Wheel",
      "genre_ids": [
        18
      ],
      "backdrop_path": "/jGYeZzcAG0df2nWRLJW2CiweyyG.jpg",
      "adult": false,
      "overview": "The story of four characters whose lives intertwine amid the hustle and bustle of the Coney Island amusement park in the 1950s: Ginny, an emotionally volatile former actress now working as a waitress in a clam house; Humpty, Ginny’s rough-hewn carousel operator husband; Mickey, a handsome young lifeguard who dreams of becoming a playwright; and Carolina, Humpty’s long-estranged daughter, who is now hiding out from gangsters at her father’s apartment.",
      "release_date": "2017-12-01"
    },
    {
      "vote_count": 72,
      "id": 480572,
      "video": false,
      "vote_average": 4.1,
      "title": "Bullet Head",
      "popularity": 102.179643,
      "poster_path": "/ySmKQPjWnNzuZ5YliQaOVEnWn2.jpg",
      "original_language": "en",
      "original_title": "Bullet Head",
      "genre_ids": [
        18,
        80,
        53
      ],
      "backdrop_path": "/eL0QAAtFfA0OvnBsY7tJKrFbc9B.jpg",
      "adult": false,
      "overview": "A group of career criminals finds itself trapped in a warehouse with the law – and an Attack Dog named DeNiro closing in.",
      "release_date": "2017-12-07"
    },
    {
      "vote_count": 87,
      "id": 55341,
      "video": false,
      "vote_average": 4.7,
      "title": "Jeepers Creepers 3",
      "popularity": 101.14942,
      "poster_path": "/j49G5F7dZVeGzAB8Fnc2GdzO1T.jpg",
      "original_language": "en",
      "original_title": "Jeepers Creepers 3",
      "genre_ids": [
        27,
        9648,
        53
      ],
      "backdrop_path": "/cq2jBczE0yNyUTAJ0UznPuCLCPa.jpg",
      "adult": false,
      "overview": "Taking place on the last day of the Creeper’s twenty-three-day feeding frenzy, as the skeptical Sergeant Tubbs teams up with a task force hellbent on destroying the Creeper for good. The Creeper fights back in gory glory as its enemies grow closer than ever before to learning the secret of its dark origins.",
      "release_date": "2017-09-26"
    },
    {
      "vote_count": 85,
      "id": 271404,
      "video": false,
      "vote_average": 5.7,
      "title": "Beyond Skyline",
      "popularity": 97.067661,
      "poster_path": "/lQUJZIm2nQj4mIsm0sUcznhMdpD.jpg",
      "original_language": "en",
      "original_title": "Beyond Skyline",
      "genre_ids": [
        28,
        878
      ],
      "backdrop_path": "/tz1UUiOHAG27Xcup1WJNjTR7oFo.jpg",
      "adult": false,
      "overview": "A tough-as-nails detective embarks on a relentless pursuit to free his son from a nightmarish alien warship.",
      "release_date": "2017-10-20"
    },
    {
      "vote_count": 51,
      "id": 364689,
      "video": false,
      "vote_average": 6.8,
      "title": "Ferdinand",
      "popularity": 91.950212,
      "poster_path": "/rMm94JsRfcOPiPVsTRcBiiVBOhz.jpg",
      "original_language": "en",
      "original_title": "Ferdinand",
      "genre_ids": [
        16,
        35,
        10751
      ],
      "backdrop_path": "/sTOhZruocNubL0HxjvdouwCEL9I.jpg",
      "adult": false,
      "overview": "Ferdinand, a little bull, prefers sitting quietly under a cork tree just smelling the flowers versus jumping around, snorting, and butting heads with other bulls. As Ferdinand grows big and strong, his temperament remains mellow, but one day five men come to choose the \"biggest, fastest, roughest bull\" for the bullfights in Madrid and Ferdinand is mistakenly chosen.  Based on the classic 1936 children's book by Munro Leaf.",
      "release_date": "2017-12-09"
    }
  ],
  "page": 1,
  "total_results": 883,
  "dates": {
    "maximum": "2018-01-05",
    "minimum": "2017-11-18"
  },
  "total_pages": 45
}